Data Science with Pokemon
…
---
class: left, top

# Using a recipe for preprocessing

```r
preprocessing %>% prep(pokemon_train) %>% bake(pokemon_test)
```

```
## # A tibble: 282 × 8
##        hp    atk    def sp_atk sp_def    spd  total type1 
##     <dbl>  <dbl>  <dbl>  <dbl>  <dbl>  <dbl>  <dbl> <fct> 
##  1 0.231  0.154  0.179  0.103   0.103 0.231  -2.00  Bug   
##  2 0.244  0.0976 0.268  0.122   0.122 0.146  -1.92  Bug   
##  3 0.152  0.114  0.127  0.228   0.203 0.177  -0.347 Bug   
##  4 0.167  0.25   0.283  0.0667  0.1   0.133  -1.13  Ground
##  5 0.167  0.25   0.3    0.0333  0.117 0.133  -1.13  Ice   
##  6 0.167  0.222  0.244  0.1     0.122 0.144   0.109 Ground
##  7 0.167  0.222  0.267  0.0556  0.144 0.144   0.109 Ice   
##  8 0.123  0.246  0.193  0.158   0.193 0.0877 -1.26  Bug   
##  9 0.148  0.235  0.198  0.148   0.198 0.0741 -0.264 Bug   
## 10 0.0377 0.208  0.0943 0.132   0.170 0.358  -1.42  Ground
## # … with 272 more rows
```
…
